   7090.0203 	 0.9828 
   7090.0572 	 1.0283 
   7090.0941 	 1.0045 
   7090.1309 	 0.9428 
   7090.1678 	 0.9679 
   7090.2047 	 0.9690 
   7090.2415 	 1.0212 
   7090.2784 	 0.9910 
   7090.3153 	 1.0006 
   7090.3522 	 0.9953 
   7090.3890 	 0.9911 
   7090.4259 	 1.0061 
   7090.4628 	 1.0107 
   7090.4997 	 0.9871 
   7090.5365 	 0.9988 
   7090.5734 	 1.0223 
   7090.6103 	 0.9579 
   7090.6472 	 0.9782 
   7090.6840 	 0.9895 
   7090.7209 	 0.9503 
   7090.7578 	 0.9922 
   7090.7947 	 0.9953 
   7090.8315 	 1.0078 
   7090.8684 	 0.9773 
   7090.9053 	 0.9562 
   7090.9422 	 0.9537 
   7090.9790 	 0.9680 
   7091.0159 	 1.0009 
   7091.0528 	 1.0084 
   7091.0897 	 0.9784 
   7091.1266 	 0.9682 
   7091.1634 	 1.0058 
   7091.2003 	 0.9884 
   7091.2372 	 1.0595 
   7091.2741 	 1.0019 
   7091.3109 	 0.9919 
   7091.3478 	 1.0048 
   7091.3847 	 1.0065 
   7091.4216 	 0.9964 
   7091.4585 	 0.9935 
   7091.4953 	 1.0075 
   7091.5322 	 1.0084 
   7091.5691 	 0.9884 
   7091.6060 	 0.9799 
   7091.6429 	 0.9769 
   7091.6797 	 0.9748 
   7091.7166 	 0.9778 
   7091.7535 	 0.9823 
   7091.7904 	 0.9827 
   7091.8273 	 0.9899 
   7091.8641 	 0.9861 
   7091.9010 	 0.9838 
   7091.9379 	 0.9696 
   7091.9748 	 0.9809 
   7092.0117 	 0.9732 
   7092.0485 	 0.9577 
   7092.0854 	 0.9746 
   7092.1223 	 0.9687 
   7092.1592 	 0.9527 
   7092.1961 	 0.9524 
   7092.2330 	 0.9877 
   7092.2698 	 0.9424 
   7092.3067 	 0.9729 
   7092.3436 	 0.9945 
   7092.3805 	 1.0066 
   7092.4174 	 0.9726 
   7092.4543 	 0.9666 
   7092.4911 	 0.9644 
   7092.5280 	 0.9567 
   7092.5649 	 0.9689 
   7092.6018 	 0.9855 
   7092.6387 	 0.9953 
   7092.6756 	 0.9961 
   7092.7125 	 0.9819 
   7092.7493 	 0.9812 
   7092.7862 	 0.9624 
   7092.8231 	 0.9713 
   7092.8600 	 1.0060 
   7092.8969 	 0.9983 
   7092.9338 	 0.9858 
   7092.9707 	 1.0115 
   7093.0076 	 0.9962 
   7093.0444 	 0.9901 
   7093.0813 	 0.9741 
   7093.1182 	 0.9899 
   7093.1551 	 1.0406 
   7093.1920 	 1.0209 
   7093.2289 	 1.0260 
   7093.2658 	 1.0200 
   7093.3027 	 1.0166 
   7093.3395 	 1.0170 
   7093.3764 	 1.0066 
   7093.4133 	 1.0097 
   7093.4502 	 0.9722 
   7093.4871 	 1.0009 
   7093.5240 	 1.0029 
   7093.5609 	 0.9920 
   7093.5978 	 0.9934 
   7093.6347 	 1.0125 
   7093.6716 	 1.0108 
   7093.7084 	 0.9712 
   7093.7453 	 0.9681 
   7093.7822 	 0.9947 
   7093.8191 	 1.0105 
   7093.8560 	 1.0012 
   7093.8929 	 1.0001 
   7093.9298 	 0.9843 
   7093.9667 	 0.9925 
   7094.0036 	 0.9835 
   7094.0405 	 0.9836 
   7094.0774 	 1.0167 
   7094.1143 	 0.9947 
   7094.1511 	 0.9867 
   7094.1880 	 0.9793 
   7094.2249 	 0.9690 
   7094.2618 	 0.9979 
   7094.2987 	 0.9921 
   7094.3356 	 0.9922 
   7094.3725 	 0.9903 
   7094.4094 	 0.9769 
   7094.4463 	 0.9648 
   7094.4832 	 1.0138 
   7094.5201 	 0.9862 
   7094.5570 	 0.9668 
   7094.5939 	 0.9822 
   7094.6308 	 0.9874 
   7094.6677 	 0.9825 
   7094.7046 	 0.9858 
   7094.7415 	 1.0045 
   7094.7784 	 1.0156 
   7094.8153 	 1.0046 
   7094.8522 	 0.9927 
   7094.8890 	 0.9948 
   7094.9259 	 1.0195 
   7094.9628 	 1.0209 
   7094.9997 	 1.0091 
   7095.0366 	 1.0012 
   7095.0735 	 1.0123 
   7095.1104 	 0.9705 
   7095.1473 	 1.0018 
   7095.1842 	 0.9945 
   7095.2211 	 0.9940 
   7095.2580 	 1.0150 
   7095.2949 	 1.0028 
   7095.3318 	 0.9878 
   7095.3687 	 0.9861 
   7095.4056 	 0.9743 
   7095.4425 	 0.9798 
   7095.4794 	 0.9961 
   7095.5163 	 1.0037 
   7095.5532 	 1.0015 
   7095.5901 	 0.9784 
   7095.6270 	 0.9669 
   7095.6639 	 0.9924 
   7095.7008 	 1.0377 
   7095.7377 	 1.0030 
   7095.7746 	 0.9930 
   7095.8115 	 1.0132 
   7095.8484 	 0.9868 
   7095.8853 	 0.9886 
   7095.9222 	 1.0156 
   7095.9591 	 1.0139 
   7095.9960 	 1.0178 
   7096.0329 	 0.9935 
   7096.0699 	 0.9902 
   7096.1068 	 1.0303 
   7096.1437 	 0.9891 
   7096.1806 	 0.9976 
   7096.2175 	 1.0280 
   7096.2544 	 0.9993 
   7096.2913 	 0.9848 
   7096.3282 	 0.9660 
   7096.3651 	 0.9698 
   7096.4020 	 0.9703 
   7096.4389 	 1.0030 
   7096.4758 	 1.0107 
   7096.5127 	 1.0109 
   7096.5496 	 1.0117 
   7096.5865 	 0.9698 
   7096.6234 	 1.0044 
   7096.6603 	 1.0106 
   7096.6972 	 0.9833 
   7096.7341 	 0.9996 
   7096.7710 	 1.0145 
   7096.8080 	 0.9848 
   7096.8449 	 0.9894 
   7096.8818 	 1.0267 
   7096.9187 	 1.0265 
   7096.9556 	 1.0192 
   7096.9925 	 0.9934 
   7097.0294 	 0.9965 
   7097.0663 	 1.0115 
   7097.1032 	 1.0005 
   7097.1401 	 1.0001 
   7097.1770 	 1.0179 
   7097.2139 	 0.9978 
   7097.2509 	 0.9449 
   7097.2878 	 1.0034 
   7097.3247 	 1.0140 
   7097.3616 	 0.9710 
   7097.3985 	 1.0165 
   7097.4354 	 1.0105 
   7097.4723 	 0.9856 
   7097.5092 	 0.9712 
   7097.5461 	 1.0228 
   7097.5830 	 1.0060 
   7097.6200 	 0.9932 
   7097.6569 	 0.9956 
   7097.6938 	 0.9907 
   7097.7307 	 1.0007 
   7097.7676 	 1.0120 
   7097.8045 	 1.0118 
   7097.8414 	 0.9913 
   7097.8783 	 1.0206 
   7097.9152 	 1.0090 
   7097.9522 	 1.0289 
   7097.9891 	 1.0245 
   7098.0260 	 0.9962 
   7098.0629 	 1.0173 
   7098.0998 	 0.9944 
   7098.1367 	 0.9927 
   7098.1736 	 1.0098 
   7098.2106 	 1.0108 
   7098.2475 	 1.0035 
   7098.2844 	 1.0135 
   7098.3213 	 1.0171 
   7098.3582 	 0.9842 
   7098.3951 	 0.9577 
   7098.4320 	 0.9658 
   7098.4690 	 0.9748 
   7098.5059 	 0.9969 
   7098.5428 	 0.9987 
   7098.5797 	 0.9906 
   7098.6166 	 0.9771 
   7098.6535 	 0.9429 
   7098.6905 	 0.9894 
   7098.7274 	 0.9831 
   7098.7643 	 0.9838 
   7098.8012 	 0.9668 
   7098.8381 	 0.9393 
   7098.8750 	 0.9218 
   7098.9120 	 0.9336 
   7098.9489 	 0.9324 
   7098.9858 	 0.9249 
   7099.0227 	 0.9309 
   7099.0596 	 0.9223 
   7099.0966 	 0.9412 
   7099.1335 	 0.9382 
   7099.1704 	 0.9561 
   7099.2073 	 0.9693 
   7099.2442 	 0.9971 
   7099.2812 	 0.9670 
   7099.3181 	 0.9941 
   7099.3550 	 1.0357 
   7099.3919 	 1.0000 
   7099.4288 	 0.9771 
   7099.4658 	 0.9616 
   7099.5027 	 0.9724 
   7099.5396 	 0.9985 
   7099.5765 	 0.9970 
   7099.6134 	 0.9838 
   7099.6504 	 1.0020 
   7099.6873 	 1.0092 
   7099.7242 	 0.9798 
   7099.7611 	 0.9963 
   7099.7980 	 0.9956 
   7099.8350 	 1.0444 
   7099.8719 	 0.9931 
   7099.9088 	 0.9711 
   7099.9457 	 1.0109 
   7099.9827 	 0.9886 
   7100.0196 	 0.9959 
   7100.0565 	 0.9872 
   7100.0934 	 1.0032 
   7100.1304 	 1.0016 
   7100.1673 	 1.0071 
   7100.2042 	 0.9979 
   7100.2411 	 0.9981 
   7100.2781 	 0.9900 
   7100.3150 	 0.9809 
   7100.3519 	 0.9984 
   7100.3888 	 0.9599 
   7100.4258 	 0.9807 
   7100.4627 	 0.9655 
   7100.4996 	 0.9674 
   7100.5365 	 1.0067 
   7100.5735 	 1.0408 
   7100.6104 	 0.9840 
   7100.6473 	 0.9911 
   7100.6842 	 1.0015 
   7100.7212 	 0.9764 
   7100.7581 	 0.9931 
   7100.7950 	 0.9690 
   7100.8320 	 0.9886 
   7100.8689 	 1.0113 
   7100.9058 	 1.0062 
   7100.9427 	 1.0177 
   7100.9797 	 1.0167 
   7101.0166 	 1.0178 
   7101.0535 	 1.0078 
   7101.0905 	 0.9693 
   7101.1274 	 0.9918 
   7101.1643 	 1.0037 
   7101.2012 	 1.0206 
   7101.2382 	 1.0036 
   7101.2751 	 0.9982 
   7101.3120 	 0.9786 
   7101.3490 	 0.9976 
   7101.3859 	 1.0070 
   7101.4228 	 1.0078 
   7101.4598 	 1.0263 
   7101.4967 	 0.9998 
   7101.5336 	 0.9815 
   7101.5706 	 0.9942 
   7101.6075 	 1.0085 
   7101.6444 	 1.0020 
   7101.6813 	 0.9711 
   7101.7183 	 0.9784 
   7101.7552 	 1.0070 
   7101.7921 	 0.9811 
   7101.8291 	 0.9717 
   7101.8660 	 0.9945 
   7101.9029 	 0.9633 
   7101.9399 	 0.9646 
   7101.9768 	 0.9676 
   7102.0137 	 0.9663 
   7102.0507 	 0.9976 
   7102.0876 	 0.9857 
   7102.1246 	 0.9535 
   7102.1615 	 0.9945 
   7102.1984 	 0.9984 
   7102.2354 	 1.0104 
   7102.2723 	 1.0293 
   7102.3092 	 1.0206 
   7102.3462 	 1.0117 
   7102.3831 	 1.0098 
   7102.4200 	 1.0280 
   7102.4570 	 1.0247 
   7102.4939 	 0.9873 
   7102.5308 	 0.9792 
   7102.5678 	 1.0008 
   7102.6047 	 1.0011 
   7102.6417 	 1.0088 
   7102.6786 	 0.9936 
   7102.7155 	 1.0102 
   7102.7525 	 0.9970 
   7102.7894 	 1.0185 
   7102.8263 	 0.9884 
   7102.8633 	 0.9815 
   7102.9002 	 0.9974 
   7102.9372 	 1.0175 
   7102.9741 	 1.0037 
   7103.0110 	 1.0034 
   7103.0480 	 1.0014 
   7103.0849 	 0.9851 
   7103.1219 	 1.0096 
   7103.1588 	 1.0015 
   7103.1957 	 0.9816 
   7103.2327 	 1.0240 
   7103.2696 	 1.0271 
   7103.3066 	 1.0419 
   7103.3435 	 1.0294 
   7103.3804 	 0.9894 
   7103.4174 	 1.0081 
   7103.4543 	 1.0131 
   7103.4913 	 0.9808 
   7103.5282 	 0.9788 
   7103.5651 	 1.0121 
   7103.6021 	 0.9877 
   7103.6390 	 0.9589 
   7103.6760 	 0.9791 
   7103.7129 	 0.9647 
   7103.7499 	 0.9642 
   7103.7868 	 0.9919 
   7103.8237 	 1.0180 
   7103.8607 	 1.0190 
   7103.8976 	 0.9865 
   7103.9346 	 1.0253 
   7103.9715 	 1.0352 
   7104.0085 	 1.0278 
   7104.0454 	 1.0258 
   7104.0824 	 0.9864 
   7104.1193 	 1.0100 
   7104.1562 	 0.9951 
   7104.1932 	 0.9901 
   7104.2301 	 1.0058 
   7104.2671 	 1.0060 
   7104.3040 	 0.9800 
   7104.3410 	 1.0134 
   7104.3779 	 1.0292 
   7104.4149 	 1.0371 
   7104.4518 	 1.0172 
   7104.4888 	 1.0059 
   7104.5257 	 1.0165 
   7104.5627 	 1.0174 
   7104.5996 	 1.0061 
   7104.6365 	 1.0113 
   7104.6735 	 1.0186 
   7104.7104 	 0.9801 
   7104.7474 	 1.0000 
   7104.7843 	 1.0091 
   7104.8213 	 0.9969 
   7104.8582 	 0.9918 
   7104.8952 	 0.9950 
   7104.9321 	 1.0093 
   7104.9691 	 1.0103 
   7105.0060 	 1.0029 
   7105.0430 	 0.9890 
   7105.0799 	 1.0293 
   7105.1169 	 1.0088 
   7105.1538 	 0.9985 
   7105.1908 	 0.9778 
   7105.2277 	 0.9931 
   7105.2647 	 1.0038 
   7105.3016 	 0.9820 
   7105.3386 	 0.9805 
   7105.3755 	 0.9887 
   7105.4125 	 0.9975 
   7105.4494 	 1.0069 
   7105.4864 	 1.0026 
   7105.5233 	 1.0114 
   7105.5603 	 1.0248 
   7105.5973 	 1.0316 
   7105.6342 	 1.0334 
   7105.6712 	 1.0346 
   7105.7081 	 1.0180 
   7105.7451 	 1.0181 
   7105.7820 	 1.0066 
   7105.8190 	 0.9802 
   7105.8559 	 0.9966 
   7105.8929 	 0.9865 
   7105.9298 	 0.9823 
   7105.9668 	 1.0041 
   7106.0037 	 0.9938 
   7106.0407 	 0.9983 
   7106.0777 	 1.0002 
   7106.1146 	 0.9899 
   7106.1516 	 0.9658 
   7106.1885 	 0.9698 
   7106.2255 	 1.0013 
   7106.2624 	 1.0089 
   7106.2994 	 1.0264 
   7106.3363 	 0.9966 
   7106.3733 	 0.9905 
   7106.4103 	 1.0102 
   7106.4472 	 1.0167 
   7106.4842 	 1.0131 
   7106.5211 	 0.9949 
   7106.5581 	 1.0034 
   7106.5950 	 1.0131 
   7106.6320 	 1.0037 
   7106.6690 	 1.0065 
   7106.7059 	 1.0179 
   7106.7429 	 0.9969 
   7106.7798 	 0.9931 
   7106.8168 	 0.9897 
   7106.8538 	 0.9883 
   7106.8907 	 0.9956 
   7106.9277 	 0.9977 
   7106.9646 	 0.9676 
   7107.0016 	 0.9632 
   7107.0386 	 0.9871 
   7107.0755 	 0.9794 
   7107.1125 	 0.9864 
   7107.1494 	 1.0050 
   7107.1864 	 0.9984 
   7107.2234 	 1.0030 
   7107.2603 	 1.0300 
   7107.2973 	 1.0303 
   7107.3342 	 0.9921 
   7107.3712 	 0.9827 
   7107.4082 	 1.0176 
   7107.4451 	 1.0289 
   7107.4821 	 1.0088 
   7107.5191 	 0.9901 
   7107.5560 	 0.9681 
   7107.5930 	 0.9883 
   7107.6299 	 0.9810 
   7107.6669 	 1.0064 
   7107.7039 	 1.0003 
   7107.7408 	 0.9774 
   7107.7778 	 0.9584 
   7107.8148 	 0.9735 
   7107.8517 	 0.9670 
   7107.8887 	 0.9699 
   7107.9257 	 0.9700 
   7107.9626 	 0.9607 
   7107.9996 	 0.9918 
   7108.0366 	 0.9621 
   7108.0735 	 0.9903 
   7108.1105 	 0.9877 
   7108.1474 	 0.9890 
   7108.1844 	 1.0290 
   7108.2214 	 1.0028 
   7108.2583 	 0.9607 
   7108.2953 	 1.0202 
   7108.3323 	 1.0058 
   7108.3692 	 0.9903 
   7108.4062 	 0.9925 
   7108.4432 	 1.0198 
   7108.4801 	 0.9795 
   7108.5171 	 0.9678 
   7108.5541 	 1.0088 
   7108.5911 	 1.0095 
   7108.6280 	 1.0161 
   7108.6650 	 1.0211 
   7108.7020 	 1.0177 
   7108.7389 	 0.9940 
   7108.7759 	 0.9961 
   7108.8129 	 1.0155 
   7108.8498 	 0.9993 
   7108.8868 	 0.9855 
   7108.9238 	 0.9834 
   7108.9607 	 1.0023 
   7108.9977 	 1.0193 
   7109.0347 	 1.0114 
   7109.0717 	 1.0281 
   7109.1086 	 1.0257 
   7109.1456 	 0.9854 
   7109.1826 	 1.0099 
   7109.2195 	 0.9586 
   7109.2565 	 0.9874 
   7109.2935 	 1.0131 
   7109.3305 	 1.0285 
   7109.3674 	 0.9901 
   7109.4044 	 1.0080 
   7109.4414 	 1.0156 
   7109.4783 	 0.9965 
   7109.5153 	 1.0012 
   7109.5523 	 1.0067 
   7109.5893 	 1.0219 
   7109.6262 	 1.0356 
   7109.6632 	 1.0203 
   7109.7002 	 1.0156 
   7109.7372 	 1.0142 
   7109.7741 	 0.9945 
   7109.8111 	 0.9793 
   7109.8481 	 1.0034 
   7109.8851 	 1.0191 
   7109.9220 	 0.9695 
   7109.9590 	 0.9788 
   7109.9960 	 1.0019 
   7110.0330 	 0.9682 
   7110.0699 	 0.9601 
   7110.1069 	 0.9676 
   7110.1439 	 0.9435 
   7110.1809 	 0.9582 
   7110.2178 	 0.9530 
   7110.2548 	 0.9436 
   7110.2918 	 0.9137 
   7110.3288 	 0.9040 
   7110.3658 	 0.9283 
   7110.4027 	 0.9609 
   7110.4397 	 0.9163 
   7110.4767 	 0.9393 
   7110.5137 	 0.9521 
   7110.5506 	 0.9685 
   7110.5876 	 0.9648 
   7110.6246 	 0.9851 
   7110.6616 	 1.0118 
   7110.6986 	 0.9982 
   7110.7355 	 1.0010 
   7110.7725 	 0.9890 
   7110.8095 	 0.9610 
   7110.8465 	 0.9646 
   7110.8835 	 0.9659 
   7110.9204 	 0.9769 
   7110.9574 	 0.9962 
   7110.9944 	 1.0062 
   7111.0314 	 0.9843 
   7111.0684 	 0.9856 
   7111.1053 	 0.9657 
   7111.1423 	 0.9784 
   7111.1793 	 0.9927 
   7111.2163 	 1.0271 
   7111.2533 	 0.9651 
   7111.2902 	 0.9872 
   7111.3272 	 1.0113 
   7111.3642 	 1.0092 
   7111.4012 	 1.0193 
   7111.4382 	 0.9997 
   7111.4752 	 0.9914 
   7111.5121 	 0.9852 
   7111.5491 	 0.9943 
   7111.5861 	 0.9830 
   7111.6231 	 0.9941 
   7111.6601 	 0.9645 
   7111.6971 	 0.9486 
   7111.7341 	 0.9674 
   7111.7710 	 0.9583 
   7111.8080 	 0.9473 
   7111.8450 	 0.9569 
   7111.8820 	 0.9390 
   7111.9190 	 0.9140 
   7111.9560 	 0.9109 
   7111.9929 	 0.8840 
   7112.0299 	 0.8773 
   7112.0669 	 0.8768 
   7112.1039 	 0.8380 
   7112.1409 	 0.8719 
   7112.1779 	 0.8490 
   7112.2149 	 0.8944 
   7112.2519 	 0.9116 
   7112.2888 	 0.9482 
   7112.3258 	 0.9302 
   7112.3628 	 0.9641 
   7112.3998 	 0.9520 
   7112.4368 	 0.9706 
   7112.4738 	 1.0115 
   7112.5108 	 0.9962 
   7112.5478 	 0.9996 
   7112.5847 	 1.0341 
   7112.6217 	 1.0246 
   7112.6587 	 1.0253 
   7112.6957 	 1.0278 
   7112.7327 	 1.0235 
   7112.7697 	 0.9958 
   7112.8067 	 0.9820 
   7112.8437 	 0.9964 
   7112.8807 	 1.0178 
   7112.9177 	 1.0080 
   7112.9546 	 0.9870 
   7112.9916 	 1.0222 
   7113.0286 	 1.0229 
   7113.0656 	 0.9824 
   7113.1026 	 0.9983 
   7113.1396 	 1.0089 
   7113.1766 	 1.0195 
   7113.2136 	 1.0211 
   7113.2506 	 1.0098 
   7113.2876 	 1.0204 
   7113.3246 	 1.0029 
   7113.3616 	 0.9826 
   7113.3986 	 1.0093 
   7113.4355 	 1.0177 
   7113.4725 	 1.0083 
   7113.5095 	 0.9713 
   7113.5465 	 1.0073 
   7113.5835 	 1.0324 
   7113.6205 	 1.0139 
   7113.6575 	 0.9845 
   7113.6945 	 0.9831 
   7113.7315 	 0.9813 
   7113.7685 	 0.9625 
   7113.8055 	 0.9553 
   7113.8425 	 0.9291 
   7113.8795 	 0.8926 
   7113.9165 	 0.9185 
   7113.9535 	 0.9055 
   7113.9905 	 0.8794 
   7114.0275 	 0.8545 
   7114.0645 	 0.8709 
   7114.1015 	 0.8891 
   7114.1385 	 0.8916 
   7114.1755 	 0.9182 
   7114.2125 	 0.9186 
   7114.2494 	 0.9249 
   7114.2864 	 0.9492 
   7114.3234 	 0.9450 
   7114.3604 	 0.9656 
   7114.3974 	 1.0002 
   7114.4344 	 1.0092 
   7114.4714 	 1.0061 
   7114.5084 	 1.0132 
   7114.5454 	 0.9937 
   7114.5824 	 1.0017 
   7114.6194 	 1.0154 
   7114.6564 	 0.9512 
   7114.6934 	 1.0189 
   7114.7304 	 1.0193 
   7114.7674 	 1.0060 
   7114.8044 	 0.9902 
   7114.8414 	 1.0314 
   7114.8784 	 1.0279 
   7114.9154 	 1.0278 
   7114.9524 	 1.0147 
   7114.9894 	 1.0234 
   7115.0264 	 1.0028 
   7115.0634 	 1.0361 
   7115.1004 	 1.0261 
   7115.1374 	 1.0153 
   7115.1745 	 1.0106 
   7115.2115 	 1.0108 
   7115.2485 	 0.9728 
   7115.2855 	 0.9766 
   7115.3225 	 0.9961 
   7115.3595 	 1.0193 
   7115.3965 	 1.0032 
   7115.4335 	 1.0094 
   7115.4705 	 1.0173 
   7115.5075 	 0.9744 
   7115.5445 	 0.9517 
   7115.5815 	 0.9507 
   7115.6185 	 0.9349 
   7115.6555 	 0.9396 
   7115.6925 	 0.9461 
   7115.7295 	 0.9218 
   7115.7665 	 0.9001 
   7115.8035 	 0.8801 
   7115.8405 	 0.8723 
   7115.8775 	 0.8706 
   7115.9145 	 0.8723 
   7115.9515 	 0.8804 
   7115.9886 	 0.9129 
   7116.0256 	 0.8964 
   7116.0626 	 0.9081 
   7116.0996 	 0.9364 
   7116.1366 	 0.9426 
   7116.1736 	 0.9516 
   7116.2106 	 0.9976 
   7116.2476 	 1.0059 
   7116.2846 	 0.9726 
   7116.3216 	 1.0063 
   7116.3586 	 1.0039 
   7116.3956 	 0.9754 
   7116.4326 	 0.9790 
   7116.4697 	 1.0128 
   7116.5067 	 0.9797 
   7116.5437 	 0.9921 
   7116.5807 	 0.9889 
   7116.6177 	 1.0117 
   7116.6547 	 1.0057 
   7116.6917 	 1.0082 
   7116.7287 	 0.9956 
   7116.7657 	 1.0076 
   7116.8027 	 1.0263 
   7116.8398 	 1.0094 
   7116.8768 	 0.9918 
   7116.9138 	 1.0158 
   7116.9508 	 1.0382 
   7116.9878 	 1.0264 
   7117.0248 	 1.0078 
   7117.0618 	 1.0124 
   7117.0988 	 1.0007 
   7117.1359 	 0.9692 
   7117.1729 	 0.9841 
   7117.2099 	 1.0272 
   7117.2469 	 1.0394 
   7117.2839 	 1.0187 
   7117.3209 	 0.9987 
   7117.3579 	 0.9949 
   7117.3949 	 1.0029 
   7117.4320 	 1.0044 
   7117.4690 	 1.0007 
   7117.5060 	 1.0109 
   7117.5430 	 1.0025 
   7117.5800 	 0.9904 
   7117.6170 	 1.0002 
   7117.6541 	 0.9903 
   7117.6911 	 0.9670 
   7117.7281 	 0.9665 
   7117.7651 	 1.0233 
   7117.8021 	 1.0339 
   7117.8391 	 1.0106 
   7117.8761 	 1.0299 
   7117.9132 	 0.9939 
   7117.9502 	 0.9646 
   7117.9872 	 0.9322 
   7118.0242 	 0.9417 
   7118.0612 	 0.9696 
   7118.0982 	 1.0190 
   7118.1353 	 0.9905 
   7118.1723 	 0.9952 
   7118.2093 	 1.0003 
   7118.2463 	 0.9749 
   7118.2833 	 0.9693 
   7118.3204 	 0.9703 
   7118.3574 	 0.9505 
   7118.3944 	 0.9330 
   7118.4314 	 0.9296 
   7118.4684 	 0.9201 
   7118.5055 	 0.9496 
   7118.5425 	 0.9492 
   7118.5795 	 0.9110 
   7118.6165 	 0.9005 
   7118.6535 	 0.9191 
   7118.6906 	 0.9592 
   7118.7276 	 0.9668 
   7118.7646 	 0.9561 
   7118.8016 	 0.9861 
   7118.8386 	 0.9929 
   7118.8757 	 0.9689 
   7118.9127 	 0.9797 
   7118.9497 	 0.9827 
   7118.9867 	 0.9625 
   7119.0238 	 0.9889 
   7119.0608 	 1.0186 
   7119.0978 	 0.9894 
   7119.1348 	 0.9806 
   7119.1718 	 1.0062 
   7119.2089 	 1.0228 
   7119.2459 	 1.0379 
   7119.2829 	 1.0083 
   7119.3199 	 0.9771 
   7119.3570 	 0.9974 
   7119.3940 	 0.9949 
   7119.4310 	 0.9828 
   7119.4680 	 0.9971 
   7119.5051 	 0.9853 
   7119.5421 	 1.0062 
   7119.5791 	 1.0233 
   7119.6161 	 0.9905 
   7119.6532 	 0.9965 
   7119.6902 	 1.0012 
   7119.7272 	 1.0133 
   7119.7642 	 1.0252 
   7119.8013 	 1.0067 
   7119.8383 	 1.0104 
   7119.8753 	 1.0220 
   7119.9123 	 1.0077 
   7119.9494 	 0.9990 
   7119.9864 	 0.9750 
   7120.0234 	 1.0060 
   7120.0605 	 1.0320 
   7120.0975 	 1.0303 
   7120.1345 	 1.0176 
   7120.1715 	 1.0119 
   7120.2086 	 1.0380 
   7120.2456 	 1.0217 
   7120.2826 	 1.0077 
   7120.3197 	 1.0361 
   7120.3567 	 1.0486 
   7120.3937 	 0.9998 
   7120.4307 	 1.0227 
   7120.4678 	 1.0258 
   7120.5048 	 1.0214 
   7120.5418 	 0.9905 
   7120.5789 	 1.0011 
   7120.6159 	 1.0123 
   7120.6529 	 0.9995 
   7120.6900 	 1.0155 
   7120.7270 	 0.9970 
   7120.7640 	 0.9921 
   7120.8011 	 0.9985 
   7120.8381 	 1.0040 
   7120.8751 	 1.0049 
   7120.9122 	 0.9942 
   7120.9492 	 0.9877 
   7120.9862 	 0.9938 
   7121.0232 	 1.0012 
   7121.0603 	 1.0065 
   7121.0973 	 1.0001 
   7121.1343 	 0.9823 
   7121.1714 	 1.0086 
   7121.2084 	 1.0222 
   7121.2455 	 1.0093 
   7121.2825 	 1.0179 
   7121.3195 	 0.9974 
   7121.3566 	 0.9871 
   7121.3936 	 0.9969 
   7121.4306 	 1.0000 
   7121.4677 	 1.0080 
   7121.5047 	 1.0177 
   7121.5417 	 1.0135 
   7121.5788 	 1.0089 
   7121.6158 	 0.9908 
   7121.6528 	 0.9944 
   7121.6899 	 1.0003 
   7121.7269 	 0.9989 
   7121.7639 	 0.9843 
   7121.8010 	 1.0123 
   7121.8380 	 1.0222 
   7121.8751 	 1.0194 
   7121.9121 	 0.9689 
   7121.9491 	 1.0089 
   7121.9862 	 1.0315 
   7122.0232 	 1.0501 
   7122.0602 	 1.0372 
   7122.0973 	 1.0468 
   7122.1343 	 1.0397 
   7122.1714 	 1.0210 
   7122.2084 	 1.0429 
   7122.2454 	 1.0093 
   7122.2825 	 0.9751 
   7122.3195 	 1.0231 
   7122.3566 	 1.0087 
   7122.3936 	 1.0362 
   7122.4306 	 1.0245 
   7122.4677 	 1.0092 
   7122.5047 	 1.0112 
   7122.5418 	 0.9610 
   7122.5788 	 0.9969 
   7122.6158 	 1.0178 
   7122.6529 	 1.0142 
   7122.6899 	 0.9887 
   7122.7270 	 1.0163 
   7122.7640 	 1.0362 
   7122.8011 	 1.0057 
   7122.8381 	 0.9811 
   7122.8751 	 1.0096 
   7122.9122 	 0.9920 
   7122.9492 	 0.9937 
   7122.9863 	 0.9813 
   7123.0233 	 0.9927 
   7123.0604 	 1.0136 
   7123.0974 	 0.9863 
   7123.1344 	 1.0170 
   7123.1715 	 1.0224 
   7123.2085 	 1.0281 
   7123.2456 	 1.0067 
   7123.2826 	 1.0085 
   7123.3197 	 1.0234 
   7123.3567 	 1.0015 
   7123.3938 	 0.9966 
   7123.4308 	 1.0051 
   7123.4678 	 1.0256 
   7123.5049 	 1.0192 
   7123.5419 	 1.0092 
   7123.5790 	 1.0149 
   7123.6160 	 1.0431 
   7123.6531 	 1.0257 
   7123.6901 	 1.0135 
   7123.7272 	 1.0487 
   7123.7642 	 1.0051 
   7123.8013 	 1.0115 
   7123.8383 	 1.0139 
   7123.8754 	 1.0162 
   7123.9124 	 0.9977 
   7123.9495 	 1.0121 
   7123.9865 	 1.0180 
   7124.0235 	 1.0007 
   7124.0606 	 0.9767 
   7124.0976 	 1.0046 
   7124.1347 	 1.0458 
   7124.1717 	 1.0255 
   7124.2088 	 1.0252 
   7124.2458 	 0.9947 
   7124.2829 	 0.9815 
   7124.3199 	 1.0067 
   7124.3570 	 1.0241 
   7124.3940 	 1.0297 
   7124.4311 	 1.0183 
   7124.4681 	 1.0205 
   7124.5052 	 1.0283 
   7124.5422 	 1.0208 
   7124.5793 	 1.0126 
   7124.6163 	 1.0132 
   7124.6534 	 1.0289 
   7124.6905 	 1.0057 
   7124.7275 	 1.0014 
   7124.7646 	 1.0265 
   7124.8016 	 0.9973 
   7124.8387 	 1.0126 
   7124.8757 	 1.0154 
   7124.9128 	 1.0173 
   7124.9498 	 1.0591 
   7124.9869 	 1.0260 
   7125.0239 	 0.9795 
   7125.0610 	 1.0037 
   7125.0980 	 1.0187 
   7125.1351 	 1.0075 
   7125.1721 	 1.0067 
   7125.2092 	 0.9902 
   7125.2463 	 1.0128 
   7125.2833 	 1.0330 
   7125.3204 	 1.0247 
   7125.3574 	 1.0172 
   7125.3945 	 1.0548 
   7125.4315 	 1.0623 
   7125.4686 	 1.0105 
   7125.5056 	 1.0017 
   7125.5427 	 1.0331 
   7125.5798 	 1.0039 
   7125.6168 	 1.0027 
   7125.6539 	 0.9887 
   7125.6909 	 0.9879 
   7125.7280 	 1.0008 
   7125.7650 	 0.9872 
   7125.8021 	 1.0083 
   7125.8392 	 1.0376 
   7125.8762 	 1.0065 
   7125.9133 	 1.0175 
   7125.9503 	 1.0234 
   7125.9874 	 1.0216 
   7126.0244 	 1.0115 
   7126.0615 	 1.0119 
   7126.0986 	 1.0059 
   7126.1356 	 1.0103 
   7126.1727 	 1.0152 
   7126.2097 	 0.9983 
   7126.2468 	 1.0048 
   7126.2839 	 1.0120 
   7126.3209 	 1.0310 
   7126.3580 	 1.0059 
   7126.3950 	 1.0177 
   7126.4321 	 1.0299 
   7126.4692 	 1.0050 
   7126.5062 	 1.0067 
   7126.5433 	 1.0526 
   7126.5804 	 1.0383 
   7126.6174 	 1.0411 
   7126.6545 	 1.0058 
   7126.6915 	 1.0131 
   7126.7286 	 1.0217 
   7126.7657 	 1.0319 
   7126.8027 	 1.0097 
   7126.8398 	 1.0098 
   7126.8769 	 0.9989 
   7126.9139 	 1.0189 
   7126.9510 	 1.0510 
   7126.9880 	 1.0071 
   7127.0251 	 1.0108 
   7127.0622 	 0.9964 
   7127.0992 	 1.0330 
   7127.1363 	 0.9996 
   7127.1734 	 1.0076 
   7127.2104 	 1.0378 
   7127.2475 	 1.0185 
   7127.2846 	 1.0216 
   7127.3216 	 1.0222 
   7127.3587 	 1.0176 
   7127.3958 	 1.0270 
   7127.4328 	 1.0327 
   7127.4699 	 0.9963 
   7127.5070 	 1.0316 
   7127.5440 	 1.0336 
   7127.5811 	 1.0147 
   7127.6182 	 1.0057 
   7127.6552 	 1.0080 
   7127.6923 	 1.0252 
   7127.7294 	 0.9924 
   7127.7664 	 0.9789 
   7127.8035 	 0.9994 
   7127.8406 	 1.0204 
   7127.8776 	 0.9919 
   7127.9147 	 0.9722 
   7127.9518 	 1.0226 
   7127.9888 	 1.0406 
   7128.0259 	 1.0328 
   7128.0630 	 1.0158 
   7128.1001 	 1.0099 
   7128.1371 	 0.9971 
   7128.1742 	 1.0063 
   7128.2113 	 1.0380 
   7128.2483 	 1.0393 
   7128.2854 	 1.0080 
   7128.3225 	 1.0162 
   7128.3595 	 1.0166 
   7128.3966 	 1.0030 
   7128.4337 	 1.0008 
   7128.4708 	 1.0161 
   7128.5078 	 1.0295 
   7128.5449 	 1.0177 
   7128.5820 	 1.0205 
   7128.6190 	 1.0154 
   7128.6561 	 1.0039 
   7128.6932 	 1.0170 
   7128.7303 	 1.0207 
   7128.7673 	 1.0156 
   7128.8044 	 0.9832 
   7128.8415 	 0.9909 
   7128.8786 	 0.9976 
   7128.9156 	 1.0077 
   7128.9527 	 0.9951 
   7128.9898 	 1.0113 
   7129.0269 	 1.0015 
   7129.0639 	 1.0053 
   7129.1010 	 1.0202 
   7129.1381 	 1.0310 
   7129.1752 	 1.0023 
   7129.2122 	 1.0020 
   7129.2493 	 1.0316 
   7129.2864 	 1.0316 
   7129.3235 	 1.0153 
   7129.3605 	 1.0096 
   7129.3976 	 1.0129 
   7129.4347 	 1.0234 
   7129.4718 	 1.0043 
   7129.5088 	 1.0106 
   7129.5459 	 0.9857 
   7129.5830 	 1.0088 
   7129.6201 	 1.0325 
   7129.6571 	 0.9712 
   7129.6942 	 0.9899 
   7129.7313 	 1.0119 
   7129.7684 	 0.9917 
   7129.8055 	 1.0116 
   7129.8425 	 0.9953 
   7129.8796 	 1.0078 
   7129.9167 	 1.0165 
   7129.9538 	 1.0025 
   7129.9909 	 1.0199 
