4582.840  0.1
4923.9216 0.1
4932.049  0.1
5018.4354 0.1
5051.39   0.1
5167.320  0.1
5169.0282 0.1
5172.684  0.1
5183.6042 0.1
5197.559 0.1 
5234.619 0.1 
5275.999 0.1 
5329.098 0.1 
5329.687 0.1 
5330.737 0.1 
5380.337 0.1 
6155.971 0.1 
6156.778 0.1 
6158.187 0.1 
6347.090 0.1 
6371.350 0.1 
6453.640 0.1 
6454.444 0.1 
6455.976 0.1 
6587.622 0.1 
6743.580 0.1 
6748.790 0.1 
6757.160 0.1 
7100.124 0.1 
7108.934 0.1 
7111.472 0.1 
7113.178 0.1 
7115.172 0.1 
7116.991 0.1 
7119.656 0.1 
7423.641 0.1 
7442.298 0.1 
7468.312 0.1 
7771.944 0.1 
7774.166 0.1 
7775.388 0.1 
8629.235 0.1 
8655.878 0.1 
8680.282 0.1 
8683.403 0.1 
8686.160 0.1 
8703.240 0.1 
8711.690 0.1 
8718.820 0.1 
8728.910 0.1 
