   7100.0000 	 0.9049 
   7100.1515 	 0.9336 
   7100.3030 	 0.9978 
   7100.4545 	 1.0687 
   7100.6061 	 1.0133 
   7100.7576 	 0.9749 
   7100.9091 	 0.9878 
   7101.0606 	 0.9738 
   7101.2121 	 1.0750 
   7101.3636 	 0.9449 
   7101.5152 	 0.9771 
   7101.6667 	 1.0038 
   7101.8182 	 1.0369 
   7101.9697 	 0.9606 
   7102.1212 	 1.0640 
   7102.2727 	 1.0100 
   7102.4242 	 1.0449 
   7102.5758 	 1.0204 
   7102.7273 	 1.0184 
   7102.8788 	 0.9598 
   7103.0303 	 1.0773 
   7103.1818 	 1.0550 
   7103.3333 	 0.9766 
   7103.4848 	 1.0524 
   7103.6364 	 1.0025 
   7103.7879 	 0.9277 
   7103.9394 	 0.9987 
   7104.0909 	 1.0127 
   7104.2424 	 0.9524 
   7104.3939 	 1.0317 
   7104.5455 	 0.9385 
   7104.6970 	 0.9359 
   7104.8485 	 1.0441 
   7105.0000 	 1.0059 
   7105.1515 	 0.9986 
   7105.3030 	 0.9618 
   7105.4545 	 0.9797 
   7105.6061 	 0.9785 
   7105.7576 	 0.9250 
   7105.9091 	 0.9879 
   7106.0606 	 1.0550 
   7106.2121 	 0.9410 
   7106.3636 	 1.0490 
   7106.5152 	 0.9767 
   7106.6667 	 1.0258 
   7106.8182 	 0.9905 
   7106.9697 	 1.0430 
   7107.1212 	 0.9332 
   7107.2727 	 0.7687 
   7107.4242 	 0.8218 
   7107.5758 	 0.7035 
   7107.7273 	 0.4487 
   7107.8788 	 0.4210 
   7108.0303 	 0.2922 
   7108.1818 	 0.2829 
   7108.3333 	 0.2243 
   7108.4848 	 0.3209 
   7108.6364 	 0.3937 
   7108.7879 	 0.5552 
   7108.9394 	 0.6568 
   7109.0909 	 0.8337 
   7109.2424 	 0.9680 
   7109.3939 	 1.0323 
   7109.5455 	 0.9130 
   7109.6970 	 0.9963 
   7109.8485 	 0.9974 
   7110.0000 	 0.9799 
   7110.1515 	 1.0073 
   7110.3030 	 1.0467 
   7110.4545 	 1.0310 
   7110.6061 	 0.9481 
   7110.7576 	 0.9882 
   7110.9091 	 0.9710 
   7111.0606 	 1.0693 
   7111.2121 	 1.0765 
   7111.3636 	 0.8873 
   7111.5152 	 0.9368 
   7111.6667 	 0.9925 
   7111.8182 	 1.0416 
   7111.9697 	 1.0003 
   7112.1212 	 1.0444 
   7112.2727 	 1.0707 
   7112.4242 	 0.9523 
   7112.5758 	 0.9582 
   7112.7273 	 0.9681 
   7112.8788 	 1.0238 
   7113.0303 	 0.9793 
   7113.1818 	 0.9214 
   7113.3333 	 0.9979 
   7113.4848 	 1.1105 
   7113.6364 	 1.0061 
   7113.7879 	 1.0181 
   7113.9394 	 0.9482 
   7114.0909 	 0.8877 
   7114.2424 	 1.0383 
   7114.3939 	 0.9772 
   7114.5455 	 0.9278 
   7114.6970 	 0.8580 
   7114.8485 	 0.9563 
   7115.0000 	 0.9696 
